{
    "task":[
        {
            "title": "Task 1",
            "responsible" : "Alejandro",
            "description" : "Hello onichan",
            "priority" : "low"
        },
        {
            "title": "Task 2",
            "responsible" : "Nissan",
            "description" : "Hello neesan",
            "priority" : "high"
        },
        {
            "title": "Task 3",
            "responsible" : "Kigama",
            "description" : "Hello onichan",
            "priority" : "medium"
        }
    ]

}